stm32l4xx_it.c:43:6:NMI_Handler	0	static
stm32l4xx_it.c:52:6:HardFault_Handler	0	static
stm32l4xx_it.c:65:6:MemManage_Handler	0	static
stm32l4xx_it.c:76:6:BusFault_Handler	0	static
stm32l4xx_it.c:89:6:UsageFault_Handler	0	static
stm32l4xx_it.c:102:6:DebugMon_Handler	0	static
stm32l4xx_it.c:111:6:SysTick_Handler	0	static
stm32l4xx_it.c:116:6:EXTI15_10_IRQHandler	8	static
stm32l4xx_it.c:128:6:EXTI9_5_IRQHandler	8	static
stm32l4xx_it.c:138:6:USART1_IRQHandler	0	static
stm32l4xx_it.c:146:6:TIM3_IRQHandler	0	static
