net_conf.c:502:6:SPI_WIFI_DelayUs	32	static
net_conf.c:375:5:wait_spi_tx_event	16	static
net_conf.c:267:15:SPI_WIFI_ResetModule	32	static
net_conf.c:394:9:SPI_WIFI_ReceiveData	48	static
net_conf.c:453:9:SPI_WIFI_SendData	40	static
net_conf.c:303:15:SPI_WIFI_DeInit	8	static
net_conf.c:210:15:SPI_WIFI_Init	64	static
net_conf.c:534:6:HAL_SPI_RxCpltCallback	0	static
net_conf.c:549:6:HAL_SPI_TxCpltCallback	0	static
net_conf.c:564:9:SPI_WIFI_ISR	0	static
net_conf.c:578:9:wifi_probe	24	static
