net_class_extension.c:25:9:net_wifi_scan	16	static
net_class_extension.c:49:5:net_wifi_get_scan_results	8	static
net_class_extension.c:60:9:net_wifi_set_credentials	0	static
net_class_extension.c:66:9:net_wifi_set_powersave	16	static
net_class_extension.c:88:9:net_wifi_set_param	8	static
net_class_extension.c:99:9:net_cellular_set_credentials	8	static
net_class_extension.c:118:9:net_cellular_get_radio_results	8	static
