at_custom_modem_signalling_bg96.c:110:13:fCmdBuild_ATD_BG96	16	static
at_custom_modem_signalling_bg96.c:129:13:fCmdBuild_CGSN_BG96	0	static
at_custom_modem_signalling_bg96.c:144:13:fCmdBuild_QPOWD_BG96	8	static
at_custom_modem_signalling_bg96.c:160:13:fCmdBuild_QCFG_BG96	112	static
at_custom_modem_signalling_bg96.c:325:13:fCmdBuild_QICSGP_BG96	40	static
at_custom_modem_signalling_bg96.c:408:13:fCmdBuild_CGDCONT_BG96	0	static
at_custom_modem_signalling_bg96.c:419:13:fCmdBuild_QICFG_BG96	0	static
at_custom_modem_signalling_bg96.c:435:13:fCmdBuild_QINDCFG_BG96	8	static
at_custom_modem_signalling_bg96.c:473:13:fCmdBuild_CPSMS_BG96	8	static
at_custom_modem_signalling_bg96.c:509:13:fCmdBuild_CEDRXS_BG96	0	static
at_custom_modem_signalling_bg96.c:540:13:fCmdBuild_QENG_BG96	8	static
at_custom_modem_signalling_bg96.c:578:17:fRspAnalyze_Error_BG96	24	static
at_custom_modem_signalling_bg96.c:641:17:fRspAnalyze_CPIN_BG96	24	static
at_custom_modem_signalling_bg96.c:672:17:fRspAnalyze_CFUN_BG96	24	static
at_custom_modem_signalling_bg96.c:697:17:fRspAnalyze_QIND_BG96	80	static
at_custom_modem_signalling_bg96.c:874:17:fRspAnalyze_QCFG_BG96	80	static
at_custom_modem_signalling_bg96.c:991:17:fRspAnalyze_QIURC_BG96	80	static
at_custom_modem_signalling_bg96.c:1279:17:fRspAnalyze_QCCID_BG96	24	static
at_custom_modem_signalling_bg96.c:1320:17:fRspAnalyze_QINISTAT_BG96	32	static
at_custom_modem_signalling_bg96.c:1356:17:fRspAnalyze_QCSQ_BG96	56	static
