net_core.c:77:19:net_if_find	0	static
net_core.c:101:18:netif_check	8	static
net_core.c:123:9:net_if_wait_state	0	static
net_core.c:138:6:net_if_notify	24	static
net_core.c:169:9:net_if_init	16	static
net_core.c:204:9:net_if_deinit	8	static
net_core.c:243:9:net_if_start	8	static
net_core.c:278:9:net_if_stop	8	static
net_core.c:315:9:net_if_connect	8	static
net_core.c:350:9:net_if_disconnect	8	static
net_core.c:382:9:net_if_powersave_enable	8	static
net_core.c:413:9:net_if_get_mac_address	8	static
net_core.c:444:9:net_if_get_ip_address	8	static
net_core.c:474:9:net_if_getState	8	static
net_core.c:498:9:net_if_gethostbyname	16	static
net_core.c:509:9:net_if_ping	24	static
net_core.c:520:9:net_if_set_dhcp_mode	8	static
net_core.c:537:9:net_if_set_ipaddr	16	static
