net_socket.c:49:16:is_valid_socket	0	static
net_socket.c:67:16:create_low_level_socket	16	static
net_socket.c:96:16:find_free_socket	8	static
net_socket.c:138:9:net_socket	24	static
net_socket.c:161:9:net_bind	32	static
net_socket.c:214:9:net_accept	24	static
net_socket.c:266:9:net_listen	8	static
net_socket.c:397:9:net_send	24	static
net_socket.c:456:9:net_recv	24	static
net_socket.c:515:9:net_sendto	32	static
net_socket.c:563:9:net_recvfrom	32	static
net_socket.c:612:9:net_shutdown	16	static
net_socket.c:674:9:net_closesocket	24	static
net_socket.c:308:9:net_connect	32	static
net_socket.c:737:9:net_setsockopt	48	static
net_socket.c:1022:9:net_access_control	0	static
